{
  "owner": "facebook",
  "repository": "create-react-app",
  "filter": ["open"],
  "numberOfIssues": 394,
  "numberOfPullRequests": 127,
  "numberOfProjects": 1,
  "availableAuthors": [],
  "author": "",
  "availableLabels": [],
  "labels": [],
  "availableProjects": [],
  "project": "",
  "availableMilestones": [],
  "milestone": "",
  "availableAssignees": [],
  "assignee": "",
  "sort": "created",
  "direction": "desc",
  "issues": [],
  "currentPage": 1,
  "perPage": 30,
  "fetching": 0
}
